dif,win,n
-11,No,-1
-10,No,-1
-9,No,-3
-8,No,-2
-8,Yes,1
-7,No,-4
-7,Yes,2
-6,No,-16
-6,Yes,4
-5,No,-6
-5,Yes,9
-4,No,-20
-4,Yes,12
-3,No,-21
-3,Yes,22
-2,No,-26
-2,Yes,23
-1,No,-26
-1,Yes,25
0,No,-21
0,Yes,25
1,No,-21
1,Yes,21
2,No,-18
2,Yes,32
3,No,-10
3,Yes,22
4,No,-8
4,Yes,15
5,No,-3
5,Yes,15
6,Yes,9
7,No,-2
7,Yes,8
8,No,-1
8,Yes,4
9,Yes,2
11,Yes,1
